<?xml version="1.0" encoding="utf-8"?>
<!-- Generator: Adobe Illustrator 17.0.0, SVG Export Plug-In . SVG Version: 6.00 Build 0)  -->
<!DOCTYPE svg PUBLIC "-//W3C//DTD SVG 1.1//EN" "http://www.w3.org/Graphics/SVG/1.1/DTD/svg11.dtd">
<svg version="1.1" id="Capa_1" xmlns="http://www.w3.org/2000/svg" xmlns:xlink="http://www.w3.org/1999/xlink" x="0px" y="0px"
	 width="96.875px" height="67.521px" viewBox="0 0 96.875 67.521" enable-background="new 0 0 96.875 67.521" xml:space="preserve">
<g>
	<path fill="#5D5D5D" d="M95.201,10.862c-1.186-5.152-5.4-8.953-10.473-9.52C72.715,0.001,60.556-0.006,48.453,0.001
		c-12.105-0.007-24.266,0-36.279,1.341c-5.07,0.567-9.281,4.368-10.467,9.52C0.019,18.199,0,26.208,0,33.762S0,49.324,1.688,56.66
		c1.184,5.151,5.396,8.952,10.469,9.52c12.012,1.342,24.172,1.349,36.277,1.342c12.107,0.007,24.264,0,36.275-1.342
		c5.07-0.567,9.285-4.368,10.471-9.52c1.689-7.337,1.695-15.345,1.695-22.898C96.875,26.208,96.889,18.199,95.201,10.862z
		 M35.936,48.798c0-10.716,0-21.32,0-32.037c10.267,5.357,20.466,10.678,30.798,16.068C56.434,38.171,46.23,43.46,35.936,48.798z"/>
</g>
</svg>
