<?xml version="1.0" encoding="utf-8"?>
<!-- Generator: Adobe Illustrator 17.0.0, SVG Export Plug-In . SVG Version: 6.00 Build 0)  -->
<!DOCTYPE svg PUBLIC "-//W3C//DTD SVG 1.1//EN" "http://www.w3.org/Graphics/SVG/1.1/DTD/svg11.dtd">
<svg version="1.1" id="Layer_1" xmlns="http://www.w3.org/2000/svg" xmlns:xlink="http://www.w3.org/1999/xlink" x="0px" y="0px"
	 width="1908.607px" height="454.199px" viewBox="0 0 1908.607 454.199" enable-background="new 0 0 1908.607 454.199"
	 xml:space="preserve">
<g id="logo">
	<g>
		<path fill="#666666" d="M478.783,332.342c6.292-6.29,13.669-11.274,21.928-14.814c8.242-3.533,17.168-5.324,26.531-5.324
			c8.847,0,17.514,1.773,25.759,5.271c8.271,3.51,15.948,8.664,22.805,15.307c1.393,1.401,3.398,1.367,4.498-0.005
			c0.449-0.563,0.687-1.232,0.687-1.937c0-0.691-0.255-1.381-0.804-2.109l-0.151-0.169c-7.264-7.265-15.503-12.871-24.49-16.665
			c-8.996-3.794-18.481-5.718-28.193-5.718c-14.101,0-27.063,3.579-38.521,10.637c-5.464,3.34-10.463,7.358-14.859,11.945
			c-4.398,4.59-8.204,9.722-11.313,15.259c-6.439,11.59-9.704,23.965-9.704,36.78c0,13.422,3.383,26.032,10.053,37.476
			c3.188,5.542,7.072,10.638,11.546,15.146c4.474,4.514,9.515,8.42,14.984,11.609c5.607,3.261,11.66,5.797,17.989,7.539
			c6.333,1.745,12.967,2.63,19.715,2.63c9.849,0,19.394-1.806,28.369-5.367c9.001-3.569,17.182-9.033,24.311-16.237
			c0.386-0.386,0.846-1.075,0.846-2.169c0-1.745-1.22-3.012-2.901-3.012c-0.803,0-1.569,0.358-2.278,1.066
			c-6.644,6.644-14.133,11.639-22.26,14.848c-8.146,3.215-16.923,4.846-26.087,4.846c-9.513,0-18.549-1.827-26.856-5.432
			c-8.328-3.606-15.702-8.661-21.919-15.022c-6.144-6.285-10.981-13.642-14.376-21.863c-3.392-8.21-5.112-16.977-5.112-26.057
			c0-9.221,1.756-18.096,5.221-26.381C467.665,346.125,472.575,338.694,478.783,332.342z"/>
		<path fill="#666666" d="M723.914,328.173c-4.509-4.509-9.601-8.447-15.134-11.708c-5.544-3.265-11.567-5.785-17.9-7.492
			c-6.332-1.706-12.961-2.571-19.703-2.571c-10.081,0-19.771,1.924-28.801,5.717c-9.024,3.793-17.06,9.177-23.882,16
			c-6.755,6.756-12.101,14.754-15.888,23.771c-3.794,9.025-5.717,18.715-5.717,28.801c0,10.083,1.923,19.773,5.717,28.801
			c3.786,9.014,9.129,17.046,15.88,23.873c6.757,6.833,14.775,12.236,23.832,16.061c9.063,3.832,18.773,5.774,28.86,5.774
			c6.673,0,13.286-0.885,19.655-2.629c6.367-1.743,12.404-4.281,17.941-7.542c5.458-3.184,10.534-7.104,15.086-11.656
			c4.548-4.548,8.469-9.623,11.653-15.078c3.261-5.539,5.799-11.578,7.544-17.948c1.745-6.369,2.63-12.982,2.63-19.656
			c0-13.268-3.422-25.918-10.176-37.607C732.327,337.702,728.426,332.686,723.914,328.173z M739.663,380.69
			c0,9.287-1.773,18.178-5.271,26.425c-3.504,8.257-8.469,15.633-14.757,21.922c-6.366,6.365-13.779,11.367-22.033,14.866
			c-8.24,3.498-17.13,5.271-26.425,5.271c-9.294,0-18.185-1.773-26.427-5.271c-8.253-3.499-15.627-8.499-21.921-14.866
			c-6.288-6.288-11.232-13.661-14.698-21.916c-3.463-8.242-5.219-17.136-5.219-26.432s1.756-18.189,5.219-26.434
			c3.466-8.253,8.411-15.626,14.698-21.914c6.286-6.285,13.66-11.229,21.915-14.698c8.25-3.463,17.144-5.219,26.434-5.219
			c9.292,0,18.185,1.756,26.433,5.22c8.255,3.467,15.667,8.414,22.025,14.698c6.291,6.293,11.256,13.669,14.757,21.922
			C737.889,362.511,739.663,371.401,739.663,380.69z"/>
		<path fill="#666666" d="M881.616,307.4c-1.773,0-3.012,1.284-3.012,3.123v131.179L779.021,308.75l-0.151-0.171
			c-0.214-0.215-0.477-0.46-0.813-0.65l-0.951-0.534l-0.917,0.017l-0.125,0.01c-1.579,0.229-2.599,1.402-2.599,2.991v140.333
			c0,1.772,1.239,3.011,3.012,3.011c1.745,0,3.012-1.267,3.012-3.011V319.134l99.912,133.713l0.144,0.164
			c0.655,0.668,1.495,0.745,2.069,0.745c1.744,0,3.012-1.266,3.015-3.012V310.523C884.629,308.684,883.39,307.4,881.616,307.4z"/>
		<path fill="#666666" d="M937.612,331.793c6.283-6.212,13.654-11.083,21.908-14.479c8.256-3.393,17.042-5.113,26.114-5.113
			c8.851,0,17.617,1.775,26.054,5.277c8.441,3.507,16.093,8.62,22.738,15.194c0.625,0.625,1.412,0.955,2.278,0.955
			c1.682,0,2.901-1.22,2.901-2.9c0-0.699-0.247-1.369-0.8-2.104l-0.154-0.175c-7.27-7.27-15.552-12.859-24.614-16.614
			c-9.064-3.754-18.582-5.657-28.29-5.657c-6.893,0-13.636,0.885-20.042,2.629c-6.42,1.748-12.479,4.325-17.999,7.652
			c-5.467,3.188-10.512,7.136-14.995,11.731c-4.467,4.582-8.347,9.672-11.534,15.135c-3.186,5.537-5.665,11.554-7.37,17.882
			c-1.706,6.334-2.571,12.889-2.571,19.482c0,10.086,1.924,19.758,5.72,28.746c3.788,8.98,9.13,16.993,15.878,23.815
			c6.825,6.903,14.802,12.344,23.708,16.169c8.919,3.835,18.482,5.779,28.427,5.779c9.851,0,19.485-1.824,28.638-5.423
			c9.186-3.604,17.46-9.049,24.596-16.185c0.35-0.35,0.62-0.758,0.804-1.215c0.178-0.444,0.264-0.974,0.264-1.619v-36.97
			c0-1.499-1.068-3.012-3.456-3.012h-40.856c-1.773,0-3.013,1.238-3.013,3.012c0,1.772,1.239,3.011,3.013,3.011h38.288v33.293
			c-6.295,6.124-13.829,10.909-22.398,14.227c-8.371,3.222-17.116,4.854-25.992,4.854c-12.209,0-23.757-3.223-34.325-9.58
			c-10.144-6.069-18.255-14.399-24.111-24.759c-6.079-10.727-9.161-22.215-9.161-34.146c0-9.439,1.811-18.479,5.382-26.869
			C926.215,345.42,931.25,338.011,937.612,331.793z"/>
		<path fill="#666666" d="M1126.584,402.273c4.75-0.919,9.256-2.419,13.417-4.47c5.31-2.615,10.032-6.09,14.039-10.329
			c3.94-4.171,7.036-9.048,9.202-14.496c2.162-5.443,3.258-11.403,3.258-17.715c0-6.858-1.352-13.334-4.018-19.247
			c-2.657-5.893-6.397-11.079-11.131-15.428c-4.693-4.153-10.203-7.425-16.377-9.726c-6.169-2.298-12.786-3.463-19.669-3.463
			h-41.078c-1.773,0-3.013,1.238-3.013,3.012v140.332c0,1.772,1.239,3.011,3.013,3.011c1.772,0,3.011-1.238,3.011-3.011v-47.392
			h37.622c1.031,0,2.518-0.056,4.423-0.165l43.584,49.273l0.392,0.393c0.589,0.591,1.359,0.902,2.228,0.902
			c1.838,0,3.123-1.285,3.124-3.125c0-0.712-0.261-1.388-0.872-2.188L1126.584,402.273z M1157.308,371.434
			c-2.097,5.032-5.145,9.499-9.062,13.276c-4.066,3.928-8.962,7.006-14.552,9.15c-5.61,2.153-11.947,3.245-18.835,3.245h-37.624
			v-83.571h38.288c6.511,0,12.642,1.091,18.22,3.242c5.557,2.148,10.398,5.189,14.39,9.04c3.916,3.775,6.984,8.264,9.122,13.341
			c2.137,5.08,3.22,10.499,3.22,16.106C1160.475,360.949,1159.41,366.39,1157.308,371.434z"/>
		<path fill="#666666" d="M1292.712,313.424c1.746,0,3.013-1.267,3.013-3.012s-1.267-3.012-3.013-3.012h-91.815
			c-2.311,0-3.345,1.513-3.345,3.012v139.777c0,2.633,1.623,3.566,3.013,3.566h92.146c1.45,0,3.013-1.012,3.014-3.234
			c0-1.387-1.035-2.79-3.013-2.79h-89.137v-65.475h65.6c1.772,0,3.011-1.238,3.011-3.011c0-1.746-1.267-3.013-3.011-3.013h-65.6
			v-62.81H1292.712z"/>
		<path fill="#666666" d="M1392.304,384.733c-3.942-2.806-8.509-5.379-13.574-7.648c-4.953-2.216-11.269-4.772-18.774-7.6
			c-0.581-0.216-1.324-0.505-2.235-0.871c-0.986-0.393-2.204-0.818-3.595-1.258c-2.512-0.859-4.953-1.844-7.286-2.939
			c-6.082-2.615-10.858-5.67-14.193-9.075c-4.243-4.378-6.395-9.409-6.395-14.953c0-4.613,1.089-8.721,3.237-12.208
			c2.198-3.57,5.198-6.638,8.917-9.116c3.359-2.238,7.101-3.958,11.12-5.11c4.046-1.16,7.902-1.749,11.461-1.749
			c7.2,0,13.583,1.277,18.97,3.795c6.689,3.136,12.056,7.933,15.932,14.228c0.871,1.528,1.968,1.85,2.734,1.85
			c1.773,0,3.012-1.238,3.012-3.012v-2.347h-0.94c-3.852-6.522-9.184-11.595-15.854-15.079c-6.939-3.623-14.965-5.46-23.854-5.46
			c-4.48,0-9.133,0.723-13.827,2.146c-4.71,1.429-9.06,3.525-12.931,6.235c-4.231,2.979-7.65,6.679-10.161,10.994
			c-2.549,4.38-3.841,9.371-3.841,14.835c0,6.885,2.465,13.044,7.318,18.296c3.502,3.893,8.736,7.498,15.563,10.72
			c4.05,1.876,9.229,3.881,15.367,5.95c6.96,2.564,12.893,4.938,17.632,7.052c4.662,2.081,8.833,4.438,12.401,7.007
			c4.109,2.926,7.313,6.245,9.521,9.866c2.152,3.531,3.243,7.698,3.243,12.385c0,6.018-1.126,11.444-3.347,16.131
			c-2.226,4.688-5.357,8.682-9.319,11.877c-3.703,3.075-7.961,5.452-12.656,7.066c-8.647,2.97-18.109,3.202-27.278,0.681
			c-4.236-1.165-8.216-2.832-11.843-4.963c-3.717-2.104-6.984-4.643-9.713-7.545c-2.674-2.847-4.652-5.984-5.912-9.401l-0.121-0.252
			c-0.876-1.521-1.967-1.841-2.729-1.841c-2.146,0-3.122,1.504-3.122,2.901c0,0.207,0,0.817,0.338,1.422
			c1.564,3.919,3.877,7.581,6.874,10.885c3.019,3.327,6.66,6.265,10.83,8.735c4.196,2.443,8.747,4.38,13.526,5.756
			c4.795,1.381,9.719,2.081,14.632,2.081c5.681,0,11.329-0.954,16.788-2.835c5.481-1.89,10.383-4.656,14.573-8.227
			c4.494-3.875,8.071-8.554,10.631-13.903c2.569-5.37,3.872-11.506,3.872-18.236c0-5.838-1.333-11.041-3.963-15.463
			C1400.76,392.204,1397.053,388.236,1392.304,384.733z"/>
		<path fill="#666666" d="M1517.469,396.534c-2.578-4.333-6.284-8.3-11.03-11.801c-3.943-2.806-8.511-5.379-13.575-7.648
			c-4.953-2.216-11.269-4.772-18.774-7.599c-0.58-0.217-1.323-0.506-2.234-0.872c-0.986-0.393-2.204-0.818-3.596-1.258
			c-2.511-0.859-4.952-1.844-7.286-2.939c-6.082-2.615-10.858-5.67-14.192-9.075c-4.244-4.377-6.396-9.408-6.396-14.953
			c0-4.612,1.09-8.72,3.238-12.208c2.196-3.569,5.196-6.637,8.917-9.116c3.359-2.238,7.101-3.958,11.12-5.11
			c4.047-1.16,7.903-1.749,11.461-1.749c7.2,0,13.583,1.277,18.97,3.795c6.69,3.137,12.057,7.934,15.933,14.229
			c0.872,1.528,1.968,1.849,2.733,1.849c1.772,0,3.011-1.238,3.011-3.012v-2.347h-0.94c-3.852-6.522-9.184-11.595-15.854-15.079
			c-6.939-3.623-14.965-5.46-23.854-5.46c-4.48,0-9.133,0.723-13.827,2.146c-4.712,1.43-9.062,3.526-12.929,6.235
			c-4.233,2.979-7.652,6.679-10.162,10.994c-2.549,4.38-3.841,9.371-3.841,14.835c0,6.887,2.465,13.046,7.316,18.296
			c3.502,3.893,8.736,7.498,15.563,10.72c4.05,1.876,9.229,3.881,15.367,5.95c6.958,2.563,12.891,4.937,17.633,7.052
			c4.661,2.082,8.832,4.438,12.4,7.007c4.11,2.926,7.313,6.245,9.521,9.866c2.152,3.531,3.243,7.698,3.243,12.385
			c0,6.016-1.126,11.443-3.348,16.131c-2.226,4.688-5.357,8.682-9.319,11.877c-3.703,3.075-7.961,5.452-12.656,7.066
			c-8.647,2.969-18.108,3.202-27.278,0.681c-4.236-1.165-8.216-2.832-11.843-4.963c-3.718-2.104-6.985-4.644-9.712-7.545
			c-2.675-2.846-4.654-5.983-5.912-9.397l-0.122-0.257c-0.878-1.521-1.969-1.84-2.729-1.84c-2.146,0-3.122,1.504-3.122,2.901
			c0,0.207,0,0.817,0.338,1.422c1.564,3.919,3.877,7.581,6.874,10.885c3.019,3.327,6.66,6.265,10.83,8.735
			c4.195,2.442,8.746,4.379,13.526,5.756c4.795,1.381,9.719,2.081,14.632,2.081c5.681,0,11.33-0.954,16.792-2.835
			c5.48-1.89,10.382-4.656,14.573-8.227c4.495-3.877,8.071-8.555,10.631-13.903c2.568-5.371,3.871-11.507,3.871-18.236
			C1521.431,406.161,1520.098,400.958,1517.469,396.534z"/>
	</g>
	<g id="biohacking">
		<g id="bio_2_">
			
				<linearGradient id="SVGID_1_" gradientUnits="userSpaceOnUse" x1="435.8228" y1="318.904" x2="825.1406" y2="318.904" gradientTransform="matrix(1 0 0 -1 8.34 430.239)">
				<stop  offset="0" style="stop-color:#5435D8"/>
				<stop  offset="0.9133" style="stop-color:#26F8F8"/>
			</linearGradient>
			<path fill="url(#SVGID_1_)" d="M445.48,13.566c0-2.042,0.67-3.764,2.016-5.163c1.344-1.396,2.985-2.097,4.921-2.097
				c2.15,0,3.872,0.701,5.163,2.097c1.291,1.399,1.936,3.121,1.936,5.163v81.151c3.441-4.946,7.447-9.41,12.02-13.391
				c4.57-3.978,9.544-7.366,14.923-10.164c5.377-2.795,11.104-4.974,17.182-6.534c6.075-1.558,12.342-2.339,18.796-2.339
				c10.648,0,20.623,1.992,29.928,5.969c9.302,3.981,17.424,9.438,24.361,16.376c6.938,6.937,12.423,15.085,16.456,24.442
				c4.034,9.358,6.05,19.361,6.05,30.009s-2.016,20.651-6.05,30.008c-4.033,9.357-9.518,17.532-16.456,24.523
				c-6.937,6.993-15.06,12.531-24.361,16.618c-9.305,4.086-19.28,6.13-29.928,6.13c-10.648,0-20.626-2.044-29.928-6.13
				c-9.304-4.087-17.452-9.625-24.442-16.618c-6.993-6.991-12.503-15.165-16.537-24.523s-6.05-19.361-6.05-30.008L445.48,13.566
				L445.48,13.566z M459.516,139.085c0,8.606,1.639,16.726,4.921,24.361c3.28,7.638,7.744,14.334,13.391,20.086
				c5.646,5.755,12.287,10.326,19.925,13.714c7.636,3.388,15.864,5.082,24.685,5.082c8.818,0,17.074-1.694,24.765-5.082
				c7.688-3.388,14.331-7.958,19.925-13.714c5.592-5.753,10.003-12.448,13.23-20.086c3.226-7.636,4.84-15.755,4.84-24.361
				c0-8.712-1.614-16.885-4.84-24.523c-3.227-7.635-7.663-14.278-13.31-19.925c-5.647-5.647-12.289-10.109-19.925-13.391
				c-7.639-3.28-15.866-4.921-24.684-4.921c-8.82,0-17.049,1.641-24.685,4.921c-7.638,3.282-14.278,7.744-19.925,13.391
				c-5.647,5.647-10.112,12.289-13.391,19.925C461.155,122.2,459.516,130.372,459.516,139.085z"/>
			
				<linearGradient id="SVGID_2_" gradientUnits="userSpaceOnUse" x1="435.8228" y1="311.7245" x2="825.1406" y2="311.7245" gradientTransform="matrix(1 0 0 -1 8.34 430.239)">
				<stop  offset="0" style="stop-color:#5435D8"/>
				<stop  offset="0.9133" style="stop-color:#26F8F8"/>
			</linearGradient>
			<path fill="url(#SVGID_2_)" d="M628.915,32.281c0-2.795,0.912-5.082,2.742-6.857c1.828-1.774,3.978-2.662,6.454-2.662
				c2.795,0,5.107,0.888,6.938,2.662c1.827,1.775,2.742,4.062,2.742,6.857c0,2.475-0.915,4.626-2.742,6.454
				c-1.83,1.83-4.142,2.742-6.938,2.742c-2.475,0-4.626-0.913-6.454-2.742C629.828,36.906,628.915,34.756,628.915,32.281z
				 M645.21,207.007c0,2.044-0.673,3.767-2.016,5.163c-1.347,1.399-2.985,2.097-4.921,2.097c-1.83,0-3.469-0.698-4.921-2.097
				c-1.452-1.396-2.178-3.119-2.178-5.163V71.485c0-2.042,0.699-3.736,2.097-5.082c1.397-1.344,3.066-2.017,5.002-2.017
				c2.042,0,3.711,0.673,5.001,2.017c1.291,1.346,1.936,3.04,1.936,5.082L645.21,207.007L645.21,207.007z"/>
			
				<linearGradient id="SVGID_3_" gradientUnits="userSpaceOnUse" x1="435.8228" y1="290.9125" x2="825.1406" y2="290.9125" gradientTransform="matrix(1 0 0 -1 8.34 430.239)">
				<stop  offset="0" style="stop-color:#5435D8"/>
				<stop  offset="0.9133" style="stop-color:#26F8F8"/>
			</linearGradient>
			<path fill="url(#SVGID_3_)" d="M677.313,139.407c0-10.648,2.017-20.676,6.05-30.089c4.034-9.41,9.544-17.585,16.537-24.523
				c6.99-6.937,15.165-12.422,24.523-16.456c9.357-4.033,19.305-6.05,29.847-6.05c10.648,0,20.651,2.017,30.009,6.05
				c9.357,4.034,17.505,9.519,24.442,16.456c6.938,6.938,12.395,15.113,16.376,24.523c3.978,9.413,5.969,19.441,5.969,30.089
				c0,10.542-1.992,20.489-5.969,29.847c-3.981,9.357-9.438,17.533-16.376,24.523c-6.937,6.993-15.085,12.503-24.442,16.537
				c-9.357,4.033-19.361,6.05-30.009,6.05c-10.542,0-20.489-2.017-29.847-6.05c-9.358-4.034-17.533-9.544-24.523-16.537
				c-6.993-6.99-12.503-15.165-16.537-24.523C679.33,159.896,677.313,149.949,677.313,139.407z M691.349,139.407
				c0,8.606,1.638,16.698,4.921,24.281c3.28,7.583,7.744,14.253,13.391,20.006c5.647,5.755,12.287,10.3,19.925,13.633
				c7.636,3.335,15.864,5.001,24.684,5.001c8.818,0,17.074-1.666,24.765-5.001c7.689-3.333,14.359-7.878,20.006-13.633
				c5.647-5.753,10.084-12.423,13.31-20.006c3.227-7.583,4.84-15.675,4.84-24.281c0-8.712-1.613-16.913-4.84-24.604
				c-3.227-7.688-7.663-14.384-13.31-20.086c-5.646-5.699-12.317-10.189-20.006-13.471c-7.691-3.28-15.947-4.921-24.765-4.921
				c-8.712,0-16.915,1.641-24.603,4.921c-7.691,3.282-14.359,7.772-20.006,13.471c-5.646,5.702-10.111,12.398-13.391,20.086
				C692.987,122.494,691.349,130.695,691.349,139.407z"/>
		</g>
		<g id="haking_1_">
			<path fill="#666666" d="M877.569,94.879c3.118-4.84,6.747-9.249,10.89-13.23c4.14-3.978,8.656-7.421,13.552-10.325
				c4.893-2.905,10.136-5.135,15.731-6.696c5.591-1.558,11.399-2.339,17.424-2.339c10.109,0,19.385,1.936,27.83,5.808
				c8.443,3.872,15.675,9.143,21.699,15.811c6.023,6.67,10.729,14.495,14.117,23.474c3.388,8.982,5.082,18.528,5.082,28.637v71.149
				c0,2.044-0.645,3.739-1.936,5.082c-1.29,1.346-3.012,2.017-5.163,2.017c-1.83,0-3.415-0.671-4.759-2.017
				c-1.346-1.343-2.017-3.038-2.017-5.082v-70.342v-0.323v-0.323c0-8.172-1.318-15.917-3.953-23.232
				c-2.636-7.313-6.372-13.658-11.213-19.038c-4.84-5.377-10.623-9.652-17.343-12.826c-6.724-3.171-14.173-4.759-22.346-4.759
				c-8.175,0-15.758,1.533-22.748,4.598c-6.993,3.066-13.069,7.26-18.231,12.585c-5.163,5.324-9.197,11.591-12.101,18.795
				c-2.903,7.207-4.356,15.004-4.356,23.394l-0.161,0.161v71.149c0,2.044-0.674,3.767-2.017,5.163
				c-1.346,1.399-2.984,2.097-4.921,2.097c-1.935,0-3.604-0.698-5.001-2.097c-1.4-1.396-2.097-3.119-2.097-5.163V13.566
				c0-2.042,0.726-3.764,2.177-5.163c1.452-1.396,3.091-2.097,4.921-2.097c2.043,0,3.712,0.701,5.002,2.097
				c1.29,1.399,1.936,3.121,1.936,5.163v81.313H877.569z"/>
			<path fill="#666666" d="M1034.623,139.407c0-10.648,2.016-20.676,6.05-30.089c4.032-9.41,9.544-17.585,16.537-24.523
				c6.991-6.937,15.165-12.422,24.523-16.456c9.358-4.033,19.305-6.05,29.847-6.05c10.649,0,20.595,1.992,29.847,5.969
				c9.249,3.981,17.344,9.438,24.282,16.376c6.937,6.937,12.422,15.032,16.456,24.281c4.034,9.251,6.104,19.199,6.212,29.847v0.646
				v67.438c0,2.153-0.646,3.928-1.936,5.324c-1.291,1.399-3.013,2.097-5.163,2.097c-2.045,0-3.685-0.698-4.921-2.097
				c-1.238-1.396-1.855-3.171-1.855-5.324l-0.161-24.2c-3.443,4.948-7.45,9.493-12.02,13.633
				c-4.573,4.142-9.518,7.691-14.842,10.648c-5.325,2.959-11.027,5.271-17.102,6.937c-6.078,1.666-12.342,2.501-18.796,2.501
				c-10.542,0-20.489-2.017-29.847-6.05c-9.357-4.034-17.532-9.544-24.523-16.537c-6.993-6.99-12.504-15.165-16.537-24.523
				C1036.639,159.896,1034.623,149.949,1034.623,139.407z M1048.658,139.407c0,8.606,1.64,16.698,4.921,24.281
				c3.28,7.583,7.744,14.253,13.391,20.006c5.647,5.755,12.287,10.3,19.925,13.633c7.636,3.335,15.864,5.001,24.684,5.001
				c8.819,0,17.074-1.666,24.765-5.001c7.688-3.333,14.359-7.878,20.006-13.633c5.646-5.753,10.083-12.423,13.31-20.006
				s4.84-15.675,4.84-24.281c0-8.712-1.613-16.913-4.84-24.604c-3.228-7.688-7.664-14.384-13.31-20.086
				c-5.647-5.699-12.318-10.189-20.006-13.471c-7.691-3.28-15.946-4.921-24.765-4.921c-8.712,0-16.915,1.641-24.603,4.921
				c-7.692,3.282-14.359,7.772-20.006,13.471c-5.647,5.702-10.111,12.398-13.391,20.086
				C1050.298,122.494,1048.658,130.695,1048.658,139.407z"/>
			<path fill="#666666" d="M1232.457,138.439c0,0.108-0.107,0.378-0.322,0.807c0.215,0.217,0.322,0.431,0.322,0.646
				c0,8.175,1.558,16.027,4.679,23.555c3.119,7.53,7.394,14.172,12.827,19.925c5.43,5.755,11.858,10.354,19.279,13.794
				c7.421,3.444,15.433,5.163,24.039,5.163c7.85,0,15.353-1.316,22.507-3.953c7.152-2.635,13.633-6.696,19.441-12.181
				c0.751-0.645,1.532-1.235,2.339-1.775c0.806-0.537,1.666-0.912,2.581-1.129c0.912-0.214,1.88-0.214,2.903,0
				c1.021,0.217,2.07,0.807,3.147,1.775c1.505,1.399,2.258,3.121,2.258,5.163c0,2.044-0.862,3.928-2.581,5.646
				c-6.348,6.454-14.064,11.483-23.152,15.085c-9.09,3.603-18.528,5.405-28.315,5.405c-10.541,0-20.408-1.992-29.605-5.969
				c-9.197-3.978-17.238-9.41-24.12-16.295c-6.885-6.882-12.317-14.924-16.295-24.12c-3.98-9.196-5.969-19.063-5.969-29.605
				l0.322-0.968c-0.217-0.429-0.322-0.807-0.322-1.13c0-10.431,1.989-20.272,5.969-29.524c3.978-9.249,9.41-17.316,16.295-24.2
				c6.882-6.882,14.923-12.314,24.12-16.295c9.196-3.978,19.063-5.969,29.605-5.969c9.787,0,19.224,1.694,28.315,5.082
				c9.088,3.388,16.804,8.309,23.152,14.762c1.719,1.722,2.581,3.605,2.581,5.647c0,2.044-0.807,3.766-2.42,5.163
				c-1.076,0.968-2.097,1.56-3.064,1.774c-0.968,0.217-1.911,0.217-2.823,0c-0.916-0.214-1.775-0.59-2.581-1.129
				c-0.807-0.537-1.588-1.074-2.339-1.613c-5.808-5.377-12.289-9.357-19.441-11.939c-7.154-2.581-14.656-3.817-22.507-3.711
				c-8.389,0-16.295,1.694-23.716,5.082c-7.422,3.388-13.875,7.906-19.36,13.552c-5.486,5.647-9.816,12.236-12.988,19.764
				C1234.043,122.252,1232.457,130.158,1232.457,138.439z"/>
			<path fill="#666666" d="M1432.674,126.662l66.793,75.989c1.183,1.291,1.828,2.932,1.936,4.921
				c0.106,1.992-0.593,3.63-2.097,4.921c-1.291,1.185-2.932,1.8-4.921,1.855c-1.991,0.053-3.631-0.618-4.921-2.016l-66.632-76.473
				l-24.684,23.555v47.755c0,2.044-0.674,3.739-2.017,5.082c-1.346,1.346-2.984,2.017-4.921,2.017c-1.935,0-3.604-0.698-5.001-2.097
				c-1.4-1.396-2.097-3.066-2.097-5.001V13.404c0-2.042,0.726-3.736,2.177-5.082c1.452-1.344,3.091-2.017,4.921-2.017
				c2.042,0,3.712,0.673,5.002,2.017c1.29,1.346,1.936,3.04,1.936,5.082v127.778l77.924-74.86c1.505-1.505,3.146-2.203,4.921-2.097
				c1.775,0.108,3.307,0.863,4.598,2.259c0.215,0.217,0.323,0.431,0.323,0.645c1.183,1.291,1.719,2.851,1.613,4.679
				c-0.109,1.83-0.806,3.336-2.097,4.518L1432.674,126.662z"/>
			<path fill="#666666" d="M1528.665,32.281c0-2.795,0.913-5.082,2.744-6.857c1.827-1.774,3.978-2.662,6.453-2.662
				c2.796,0,5.107,0.888,6.937,2.662c1.828,1.775,2.744,4.062,2.744,6.857c0,2.475-0.916,4.626-2.744,6.454
				c-1.83,1.83-4.141,2.742-6.937,2.742c-2.475,0-4.626-0.913-6.453-2.742C1529.579,36.906,1528.665,34.756,1528.665,32.281z
				 M1544.961,207.007c0,2.044-0.674,3.767-2.017,5.163c-1.346,1.399-2.984,2.097-4.921,2.097c-1.83,0-3.469-0.698-4.921-2.097
				c-1.451-1.396-2.177-3.119-2.177-5.163V71.485c0-2.042,0.698-3.736,2.097-5.082c1.396-1.344,3.066-2.017,5.001-2.017
				c2.042,0,3.711,0.673,5.002,2.017c1.29,1.346,1.936,3.04,1.936,5.082V207.007z"/>
			<path fill="#666666" d="M1726.378,207.329c0,2.045-0.646,3.739-1.936,5.082c-1.291,1.346-2.959,2.017-5.002,2.017
				c-1.935,0-3.604-0.671-5.001-2.017c-1.4-1.344-2.097-3.038-2.097-5.082v-70.503v-0.646c0-8.172-1.346-15.917-4.034-23.232
				c-2.69-7.313-6.454-13.658-11.294-19.038c-4.84-5.377-10.648-9.652-17.424-12.826c-6.776-3.171-14.253-4.759-22.426-4.759
				c-8.176,0-15.73,1.533-22.668,4.598c-6.938,3.066-12.963,7.288-18.07,12.665c-5.109,5.38-9.115,11.697-12.019,18.957
				c-2.905,7.26-4.357,15.085-4.357,23.474v71.31c0,2.045-0.593,3.739-1.774,5.082c-1.185,1.346-2.851,2.017-5.002,2.017
				c-1.936,0-3.63-0.671-5.082-2.017c-1.452-1.344-2.178-3.038-2.178-5.082v-71.632c0-10.109,1.801-19.628,5.405-28.557
				c3.602-8.927,8.604-16.698,15.004-23.313c6.398-6.615,13.928-11.858,22.587-15.731c8.656-3.872,18.043-5.808,28.154-5.808
				c10.109,0,19.413,1.936,27.91,5.808c8.496,3.872,15.812,9.115,21.942,15.731c6.131,6.615,10.891,14.386,14.278,23.313
				c3.389,8.929,5.083,18.448,5.083,28.557v0.484L1726.378,207.329L1726.378,207.329z"/>
			<path fill="#666666" d="M1754.853,139.407c0-10.648,2.016-20.676,6.05-30.089c4.032-9.41,9.544-17.585,16.537-24.523
				c6.991-6.937,15.165-12.422,24.523-16.456c9.358-4.033,19.305-6.05,29.847-6.05c10.649,0,20.651,2.017,30.009,6.05
				c9.357,4.034,17.505,9.519,24.442,16.456c6.937,6.938,12.396,15.113,16.376,24.523c3.978,9.413,5.97,19.441,5.97,30.089
				c0,8.389-1.266,16.35-3.792,23.877c-2.529,7.53-6.05,14.467-10.568,20.812c4.731,5.057,7.93,10.595,9.6,16.618
				c1.666,6.025,2.5,12.1,2.5,18.231c0,8.496-1.48,16.134-4.437,22.91c-2.959,6.776-6.912,12.557-11.858,17.343
				c-4.948,4.785-10.568,8.442-16.86,10.971c-6.292,2.526-12.826,3.792-19.602,3.792c-2.905,0-5.969-0.189-9.197-0.565
				c-3.226-0.378-6.509-0.807-9.842-1.291c-3.335-0.484-6.67-0.888-10.003-1.21c-3.335-0.323-6.509-0.431-9.519-0.323
				c-3.335,0.106-6.993,0.618-10.971,1.533c-3.98,0.912-7.477,2.445-10.487,4.598c-1.508,1.29-3.174,1.774-5.002,1.452
				c-1.83-0.323-3.362-1.076-4.598-2.259c-1.238-1.185-1.911-2.717-2.016-4.598c-0.108-1.883,0.751-3.739,2.581-5.566
				c1.396-1.185,3.089-2.205,5.082-3.065c1.989-0.863,4.086-1.613,6.292-2.259c2.203-0.645,4.437-1.185,6.695-1.613
				c2.259-0.431,4.409-0.754,6.454-0.968c3.332-0.323,6.72-0.378,10.164-0.161c3.441,0.214,6.857,0.509,10.245,0.887
				c3.389,0.376,6.749,0.726,10.084,1.049c3.333,0.323,6.559,0.484,9.681,0.484c6.236,0,11.991-0.968,17.263-2.904
				c5.268-1.936,9.813-4.679,13.632-8.228c3.817-3.55,6.801-7.88,8.954-12.988c2.15-5.11,3.227-10.837,3.227-17.182
				c0-3.226-0.217-6.022-0.645-8.389c-0.432-2.365-0.968-4.462-1.613-6.292c-0.645-1.828-1.427-3.469-2.339-4.921
				c-0.916-1.452-1.855-2.876-2.823-4.275c-6.885,6.67-14.842,11.886-23.878,15.649c-9.034,3.764-18.77,5.646-29.202,5.646
				c-10.542,0-20.489-2.016-29.847-6.05c-9.357-4.033-17.532-9.518-24.523-16.456c-6.993-6.938-12.504-15.085-16.537-24.442
				C1756.869,159.896,1754.853,149.949,1754.853,139.407z M1768.888,139.407c0,8.606,1.64,16.698,4.921,24.281
				c3.28,7.583,7.744,14.225,13.391,19.925c5.647,5.702,12.287,10.22,19.925,13.552c7.636,3.336,15.864,5.002,24.684,5.002
				c8.819,0,17.074-1.666,24.765-5.002c7.688-3.332,14.359-7.85,20.006-13.552c5.646-5.699,10.083-12.342,13.31-19.925
				c3.226-7.583,4.84-15.675,4.84-24.281c0-8.712-1.613-16.913-4.84-24.604c-3.228-7.688-7.664-14.384-13.31-20.086
				c-5.647-5.699-12.318-10.189-20.006-13.471c-7.691-3.28-15.946-4.921-24.765-4.921c-8.712,0-16.915,1.641-24.603,4.921
				c-7.692,3.282-14.359,7.772-20.006,13.471c-5.647,5.702-10.111,12.398-13.391,20.086
				C1770.527,122.494,1768.888,130.695,1768.888,139.407z"/>
		</g>
	</g>
	<g id="logo_icon">
		<g id="мал_кружки">
			
				<linearGradient id="SVGID_4_" gradientUnits="userSpaceOnUse" x1="85.9293" y1="100.158" x2="228.5664" y2="100.158" gradientTransform="matrix(1 0 0 -1 8.34 430.239)">
				<stop  offset="0" style="stop-color:#26F8F8"/>
				<stop  offset="0.0895" style="stop-color:#28F0F7"/>
				<stop  offset="0.2293" style="stop-color:#2DDAF3"/>
				<stop  offset="0.4016" style="stop-color:#36B6ED"/>
				<stop  offset="0.5999" style="stop-color:#4183E5"/>
				<stop  offset="0.8175" style="stop-color:#5044DA"/>
				<stop  offset="0.8653" style="stop-color:#5435D8"/>
			</linearGradient>
			<circle fill="url(#SVGID_4_)" cx="167.548" cy="330.081" r="8.476"/>
			<g>
				<g>
					
						<linearGradient id="SVGID_5_" gradientUnits="userSpaceOnUse" x1="85.9293" y1="106.832" x2="228.5664" y2="106.832" gradientTransform="matrix(1 0 0 -1 8.34 430.239)">
						<stop  offset="0" style="stop-color:#26F8F8"/>
						<stop  offset="0.0895" style="stop-color:#28F0F7"/>
						<stop  offset="0.2293" style="stop-color:#2DDAF3"/>
						<stop  offset="0.4016" style="stop-color:#36B6ED"/>
						<stop  offset="0.5999" style="stop-color:#4183E5"/>
						<stop  offset="0.8175" style="stop-color:#5044DA"/>
						<stop  offset="0.8653" style="stop-color:#5435D8"/>
					</linearGradient>
					<circle fill="url(#SVGID_5_)" cx="189.469" cy="323.407" r="7.161"/>
					
						<linearGradient id="SVGID_6_" gradientUnits="userSpaceOnUse" x1="85.9293" y1="119.79" x2="228.5664" y2="119.79" gradientTransform="matrix(1 0 0 -1 8.34 430.239)">
						<stop  offset="0" style="stop-color:#26F8F8"/>
						<stop  offset="0.0895" style="stop-color:#28F0F7"/>
						<stop  offset="0.2293" style="stop-color:#2DDAF3"/>
						<stop  offset="0.4016" style="stop-color:#36B6ED"/>
						<stop  offset="0.5999" style="stop-color:#4183E5"/>
						<stop  offset="0.8175" style="stop-color:#5044DA"/>
						<stop  offset="0.8653" style="stop-color:#5435D8"/>
					</linearGradient>
					<circle fill="url(#SVGID_6_)" cx="205.252" cy="310.449" r="5.797"/>
					
						<linearGradient id="SVGID_7_" gradientUnits="userSpaceOnUse" x1="85.9293" y1="106.783" x2="228.5664" y2="106.783" gradientTransform="matrix(1 0 0 -1 8.34 430.239)">
						<stop  offset="0" style="stop-color:#26F8F8"/>
						<stop  offset="0.0895" style="stop-color:#28F0F7"/>
						<stop  offset="0.2293" style="stop-color:#2DDAF3"/>
						<stop  offset="0.4016" style="stop-color:#36B6ED"/>
						<stop  offset="0.5999" style="stop-color:#4183E5"/>
						<stop  offset="0.8175" style="stop-color:#5044DA"/>
						<stop  offset="0.8653" style="stop-color:#5435D8"/>
					</linearGradient>
					<circle fill="url(#SVGID_7_)" cx="220.499" cy="323.456" r="4.482"/>
					
						<linearGradient id="SVGID_8_" gradientUnits="userSpaceOnUse" x1="85.9293" y1="91.341" x2="228.5664" y2="91.341" gradientTransform="matrix(1 0 0 -1 8.34 430.239)">
						<stop  offset="0" style="stop-color:#26F8F8"/>
						<stop  offset="0.0895" style="stop-color:#28F0F7"/>
						<stop  offset="0.2293" style="stop-color:#2DDAF3"/>
						<stop  offset="0.4016" style="stop-color:#36B6ED"/>
						<stop  offset="0.5999" style="stop-color:#4183E5"/>
						<stop  offset="0.8175" style="stop-color:#5044DA"/>
						<stop  offset="0.8653" style="stop-color:#5435D8"/>
					</linearGradient>
					<circle fill="url(#SVGID_8_)" cx="205.252" cy="338.898" r="4.482"/>
				</g>
				<g>
					
						<linearGradient id="SVGID_9_" gradientUnits="userSpaceOnUse" x1="85.9293" y1="105.614" x2="228.5664" y2="105.614" gradientTransform="matrix(1 0 0 -1 8.34 430.239)">
						<stop  offset="0" style="stop-color:#26F8F8"/>
						<stop  offset="0.0895" style="stop-color:#28F0F7"/>
						<stop  offset="0.2293" style="stop-color:#2DDAF3"/>
						<stop  offset="0.4016" style="stop-color:#36B6ED"/>
						<stop  offset="0.5999" style="stop-color:#4183E5"/>
						<stop  offset="0.8175" style="stop-color:#5044DA"/>
						<stop  offset="0.8653" style="stop-color:#5435D8"/>
					</linearGradient>
					<circle fill="url(#SVGID_9_)" cx="146.942" cy="324.625" r="7.161"/>
					
						<linearGradient id="SVGID_10_" gradientUnits="userSpaceOnUse" x1="85.9293" y1="92.656" x2="228.5664" y2="92.656" gradientTransform="matrix(1 0 0 -1 8.34 430.239)">
						<stop  offset="0" style="stop-color:#26F8F8"/>
						<stop  offset="0.0895" style="stop-color:#28F0F7"/>
						<stop  offset="0.2293" style="stop-color:#2DDAF3"/>
						<stop  offset="0.4016" style="stop-color:#36B6ED"/>
						<stop  offset="0.5999" style="stop-color:#4183E5"/>
						<stop  offset="0.8175" style="stop-color:#5044DA"/>
						<stop  offset="0.8653" style="stop-color:#5435D8"/>
					</linearGradient>
					<circle fill="url(#SVGID_10_)" cx="131.159" cy="337.583" r="5.797"/>
					
						<linearGradient id="SVGID_11_" gradientUnits="userSpaceOnUse" x1="85.9293" y1="105.663" x2="228.5664" y2="105.663" gradientTransform="matrix(1 0 0 -1 8.34 430.239)">
						<stop  offset="0" style="stop-color:#26F8F8"/>
						<stop  offset="0.0895" style="stop-color:#28F0F7"/>
						<stop  offset="0.2293" style="stop-color:#2DDAF3"/>
						<stop  offset="0.4016" style="stop-color:#36B6ED"/>
						<stop  offset="0.5999" style="stop-color:#4183E5"/>
						<stop  offset="0.8175" style="stop-color:#5044DA"/>
						<stop  offset="0.8653" style="stop-color:#5435D8"/>
					</linearGradient>
					<circle fill="url(#SVGID_11_)" cx="115.912" cy="324.576" r="4.482"/>
					
						<linearGradient id="SVGID_12_" gradientUnits="userSpaceOnUse" x1="85.9293" y1="121.105" x2="228.5664" y2="121.105" gradientTransform="matrix(1 0 0 -1 8.34 430.239)">
						<stop  offset="0" style="stop-color:#26F8F8"/>
						<stop  offset="0.0895" style="stop-color:#28F0F7"/>
						<stop  offset="0.2293" style="stop-color:#2DDAF3"/>
						<stop  offset="0.4016" style="stop-color:#36B6ED"/>
						<stop  offset="0.5999" style="stop-color:#4183E5"/>
						<stop  offset="0.8175" style="stop-color:#5044DA"/>
						<stop  offset="0.8653" style="stop-color:#5435D8"/>
					</linearGradient>
					<circle fill="url(#SVGID_12_)" cx="131.159" cy="309.134" r="4.482"/>
				</g>
			</g>
		</g>
		
			<linearGradient id="низ_1_" gradientUnits="userSpaceOnUse" x1="29.0718" y1="57.3865" x2="373.1028" y2="57.3865" gradientTransform="matrix(1 0 0 -1 8.34 430.239)">
			<stop  offset="0" style="stop-color:#26F8F8"/>
			<stop  offset="0.0895" style="stop-color:#28F0F7"/>
			<stop  offset="0.2293" style="stop-color:#2DDAF3"/>
			<stop  offset="0.4016" style="stop-color:#36B6ED"/>
			<stop  offset="0.5999" style="stop-color:#4183E5"/>
			<stop  offset="0.8175" style="stop-color:#5044DA"/>
			<stop  offset="0.8653" style="stop-color:#5435D8"/>
		</linearGradient>
		<path id="низ" fill="url(#низ_1_)" d="M237.64,368.334c-0.42,0-83.097-0.007-83.097-0.007H85.637L0,453.859
			c0,0,214.648,0.008,214.998,0.008c71.263,0,129.033-57.77,129.033-129.033c0-11.406-1.487-22.463-4.265-32.996
			C326.848,336.041,286.018,368.334,237.64,368.334z"/>
		
			<linearGradient id="верх_1_" gradientUnits="userSpaceOnUse" x1="10.4838" y1="331.4565" x2="111.325" y2="331.4565" gradientTransform="matrix(1 0 0 -1 8.34 430.239)">
			<stop  offset="0" style="stop-color:#26F8F8"/>
			<stop  offset="0.0895" style="stop-color:#28F0F7"/>
			<stop  offset="0.2293" style="stop-color:#2DDAF3"/>
			<stop  offset="0.4016" style="stop-color:#36B6ED"/>
			<stop  offset="0.5999" style="stop-color:#4183E5"/>
			<stop  offset="0.8175" style="stop-color:#5044DA"/>
			<stop  offset="0.8653" style="stop-color:#5435D8"/>
		</linearGradient>
		<path id="верх" fill="url(#верх_1_)" d="M23.728,90.022l-0.002,41.248c28.092,38.462,72.75,64.058,123.476,66.296
			c-19.734-8.891-33.48-28.718-33.48-51.768c0-0.277,0.006-145.799,0.006-145.799L23.728,90.022z"/>
		
			<linearGradient id="середина_1_" gradientUnits="userSpaceOnUse" x1="-7.9946" y1="181.029" x2="319.7529" y2="181.029" gradientTransform="matrix(1 0 0 -1 8.34 430.239)">
			<stop  offset="0" style="stop-color:#26F8F8"/>
			<stop  offset="0.1722" style="stop-color:#27F5F8"/>
			<stop  offset="0.2922" style="stop-color:#29ECF6"/>
			<stop  offset="0.3963" style="stop-color:#2CDDF3"/>
			<stop  offset="0.4914" style="stop-color:#32C7F0"/>
			<stop  offset="0.5803" style="stop-color:#38AAEB"/>
			<stop  offset="0.6647" style="stop-color:#4088E6"/>
			<stop  offset="0.7439" style="stop-color:#4A5FDF"/>
			<stop  offset="0.8136" style="stop-color:#5435D8"/>
			<stop  offset="1" style="stop-color:#302779"/>
		</linearGradient>
		<path id="середина" fill="url(#середина_1_)" d="M223.997,198.04c0.002-0.009,0.005-0.017,0.007-0.026
			l-0.497-0.006c-2.557-0.152-5.127-0.257-7.722-0.257h-15.078l-14.553-0.164c0,0-16.836,0-27.329,0.001
			c-2.326,0.106-4.665,0.163-7.018,0.163c-49.392,0-102.296-32.107-128.08-67.882c0,0,0,35.95,0,51.149
			c0,55.959,45.364,101.323,101.324,101.323c0.119,0,22.359-0.001,22.359-0.001s0.3-0.173,0.848-0.501v0.483
			c0.012,0,57.318,0,57.321,0c0.05,0,0.099,0,0.149,0c23.53,0.08,42.58,19.18,42.58,42.728c0,23.598-19.148,43.277-42.747,43.277
			c-0.011,0-0.023,0-0.034,0l0.018,0.221c17.238,0.001,32.282,0.003,32.461,0.003c47.936,0,88.444-31.712,101.749-75.294
			C325.979,240.845,279.842,201.574,223.997,198.04z"/>
	</g>
</g>
</svg>
