<?xml version="1.0" encoding="utf-8"?>
<!-- Generator: Adobe Illustrator 17.0.0, SVG Export Plug-In . SVG Version: 6.00 Build 0)  -->
<!DOCTYPE svg PUBLIC "-//W3C//DTD SVG 1.1//EN" "http://www.w3.org/Graphics/SVG/1.1/DTD/svg11.dtd">
<svg version="1.1" id="Layer_1" xmlns="http://www.w3.org/2000/svg" xmlns:xlink="http://www.w3.org/1999/xlink" x="0px" y="0px"
	 width="2834.65px" height="2687.24px" viewBox="0 0 2834.65 2687.24" enable-background="new 0 0 2834.65 2687.24"
	 xml:space="preserve">
<g>
	<g id="юникорн_4_">
		<path id="фон_обводка_3_" fill="#3D3D3D" d="M2348.071,563.594c-51.193-97.778-117.444-186.709-196.916-264.314
			C1953.798,106.538,1693.213,0.389,1417.403,0.389c-285.296,0-552.177,112.388-751.479,316.461
			C507.94,478.619,408.061,682.162,377.087,905.472c-30.356,218.854,7.508,437.496,109.498,632.293
			c51.191,97.778,117.441,186.703,196.91,264.314c197.334,192.719,457.919,298.867,733.753,298.891c0.035,0,0.062,0,0.097,0
			c285.234,0,552.083-112.388,751.382-316.461c157.989-161.768,257.869-365.312,288.837-588.622
			C2487.918,977.039,2450.058,758.391,2348.071,563.594z"/>
		<g id="гррадиент_1_">
			
				<linearGradient id="SVGID_1_" gradientUnits="userSpaceOnUse" x1="663.9542" y1="-127.0737" x2="1337.6304" y2="1799.7627" gradientTransform="matrix(-0.4855 -0.8742 0.8742 -0.4855 925.6959 2112.2759)">
				<stop  offset="0" style="stop-color:#ADB3F2"/>
				<stop  offset="1" style="stop-color:#FABCF3"/>
			</linearGradient>
			<path fill="url(#SVGID_1_)" d="M2130.404,320.525C1727.15-73.298,1080.993-65.653,687.17,337.601
				c-316.661,324.245-373.689,805.507-174.274,1186.388L2321.754,577.37C2273.162,484.562,2209.413,397.686,2130.404,320.525z"/>
			
				<linearGradient id="SVGID_2_" gradientUnits="userSpaceOnUse" x1="41.0634" y1="90.7064" x2="714.7396" y2="2017.5428" gradientTransform="matrix(-0.4855 -0.8742 0.8742 -0.4855 925.6959 2112.2759)">
				<stop  offset="0" style="stop-color:#97F0FF"/>
				<stop  offset="1" style="stop-color:#B1B6F4"/>
			</linearGradient>
			<path fill="url(#SVGID_2_)" d="M2147.48,1763.758c316.661-324.245,373.689-805.506,174.274-1186.388L512.896,1523.989
				c48.591,92.809,112.341,179.685,191.35,256.846C1107.5,2174.657,1753.657,2167.011,2147.48,1763.758z"/>
		</g>
		<g id="юникорн_5_">
			<defs>
				<circle id="SVGID_3_" cx="1417.772" cy="1050.574" r="1021.278"/>
			</defs>
			<clipPath id="SVGID_4_">
				<use xlink:href="#SVGID_3_"  overflow="visible"/>
			</clipPath>
			<g id="юникорн_6_" clip-path="url(#SVGID_4_)">
				<polygon id="фон_2_" fill="#3D3D3D" points="1644.061,894.397 1393.254,515.527 1393.354,655.989 1257.157,450.34 
					1257.581,624.019 853.704,679.713 380.471,1062.645 402.132,1341.033 351.147,1349.1 755.607,2051.823 1275.627,1277.976 
					1361.921,1399.927 1424.117,1707.534 1682.642,1734.885 1769.81,1083.493 2450.722,495.465 				"/>
				<g id="юникорн_треугольники_1_">
					<polygon id="фон_обводка_2_" display="none" points="2334.609,582.146 2313.584,548.307 1607.437,815.229 
						1535.266,719.096 1463.578,490.795 1404.089,624.679 1315.707,434.844 1264.751,595.454 1201.806,579.718 867.597,594.705 
						381.004,921.42 363.521,1095.484 363.521,1131.453 302.59,1204.673 752.198,1993.486 1259.74,1236.362 1324.184,1333.777 
						1394.622,1661.991 1650.899,1691.964 1748.159,1031.296 					"/>
					<g id="юникорн_7_">
						<polygon id="рог_1_" fill="#FBFFA4" points="1758.076,1065.968 1655.675,913.349 2321.754,580.891 						"/>
						<polygon id="перед_тела_4_" fill="#FFFFFF" points="756.487,2012.028 1257.021,1267.265 384.042,1364.936 						"/>
						<polygon id="задняя_часть_спины_4_" fill="#FFFFFF" points="1257.049,660.176 434.655,1334.46 
							1257.019,1245.696 						"/>
						<polygon id="низ_морды_4_" fill="#FFFFFF" points="1442.925,1688.537 1390.481,1429.786 1642.087,1713.237 						"/>
						<polygon id="верх_морды_4_" fill="#FFFFFF" points="1661.973,1703.676 1394.501,1402.898 1749.883,1101.083 						
							"/>
						<polygon id="_x34__грива_3_" display="none" fill="#FFFFFF" points="479.775,1041.742 404.379,1337.464 
							103.238,1356.707 						"/>
						<polygon id="_x33__грива_6_" display="none" fill="#FFFFFF" points="431.349,1312.681 508.115,1017.311 809.341,999.465 
													"/>
						<polygon id="_x32__грива_5_" display="none" fill="#FFFFFF" points="912.897,680.556 837.501,976.279 536.361,995.522 
													"/>
						<polygon id="_x33__грива_5_" fill="#FFFFFF" points="271.265,1433.646 398.613,1097.975 744.15,1047.711 						"/>
						<polygon id="_x31__грива_6_" fill="#FFFFFF" points="848.625,712.067 747.968,1021.763 398.019,1076.121 						"/>
						<polygon id="_x31__грива_5_" fill="#FFFFFF" points="768.073,1030.498 876.225,697.83 1240.958,644.562 						"/>
						<polygon id="голова_4_" fill="#FFFFFF" points="1381.673,1389.487 1278.268,1246.164 1278.268,660.647 1551.252,793.64 
							1741.659,1081.317 						"/>
						<polygon id="_x31__ухо_10_" fill="#FFFFFF" points="1392.083,692.334 1278.223,637.157 1278.147,520.038 						"/>
						<polygon id="_x31__ухо_9_" fill="#FFFFFF" points="1528.159,758.243 1414.298,703.066 1414.223,585.947 						"/>
					</g>
				</g>
			</g>
		</g>
	</g>
	<g>
		<g>
			<linearGradient id="SVGID_5_" gradientUnits="userSpaceOnUse" x1="2018.9878" y1="2565.4558" x2="2819.9053" y2="2538.4585">
				<stop  offset="0" style="stop-color:#3FECFF"/>
				<stop  offset="1" style="stop-color:#C694FF"/>
			</linearGradient>
			<path fill="url(#SVGID_5_)" d="M2834.648,2608.1c0,49.706-38.702,78.631-111.212,78.631h-148.028v-285.2h140.513
				c72.517,0,106.325,31.375,106.325,74.559c0,26.487-12.396,48.484-36.442,61.522
				C2816.61,2549.839,2834.648,2574.28,2834.648,2608.1z M2662.568,2468.758v42.374h41.33c19.911,0,28.933-7.332,28.933-21.187
				c0-13.854-9.022-21.187-28.933-21.187H2662.568z M2745.227,2597.094c0-14.665-9.769-22.409-29.307-22.409h-53.353v44.818h53.353
				C2735.458,2619.503,2745.227,2611.766,2745.227,2597.094z"/>
			<linearGradient id="SVGID_6_" gradientUnits="userSpaceOnUse" x1="2014.4696" y1="2547.3691" x2="2814.7322" y2="2520.3938">
				<stop  offset="0" style="stop-color:#3FECFF"/>
				<stop  offset="1" style="stop-color:#C694FF"/>
			</linearGradient>
			<path fill="url(#SVGID_6_)" d="M2010.433,2401.289h88.667v216.685h118.721v68.756h-207.389V2401.289z"/>
			<linearGradient id="SVGID_7_" gradientUnits="userSpaceOnUse" x1="2019.2107" y1="2558.6689" x2="2819.4731" y2="2531.6938">
				<stop  offset="0" style="stop-color:#3FECFF"/>
				<stop  offset="1" style="stop-color:#C694FF"/>
			</linearGradient>
			<path fill="url(#SVGID_7_)" d="M2445.836,2640.893h-99.943l-17.658,45.837h-90.174l114.973-285.441h87.161l114.973,285.441
				h-91.675L2445.836,2640.893z M2421.41,2577.024l-25.546-88.568l-25.552,88.568H2421.41z"/>
		</g>
		<g>
			<path fill="#3D3D3D" d="M0.002,2557.661v-156.131H92.03v153.397c0,41.726,15.987,57.326,41.72,57.326
				c25.739,0,41.726-15.6,41.726-57.326v-153.397h90.471v156.131c0,81.889-49.132,129.069-132.972,129.069
				S0.002,2639.55,0.002,2557.661z"/>
			<path fill="#3D3D3D" d="M555.252,2401.772v284.958h-75.653l-103.724-129.998v129.998h-89.689v-284.958h75.646l103.731,135.999
				v-135.999H555.252z"/>
			<path fill="#3D3D3D" d="M575.491,2401.772h92.028v284.958h-92.028V2401.772z"/>
			<path fill="#3D3D3D" d="M687.758,2544.134c0-83.84,64.344-142.724,152.081-142.724c53.423,0,95.537,19.496,122.445,54.593
				l-58.101,51.865c-15.987-20.278-35.096-31.975-59.665-31.975c-38.217,0-63.95,26.514-63.95,68.241
				c0,41.719,25.732,68.24,63.95,68.24c24.569,0,43.678-11.697,59.665-31.975l58.101,51.859
				c-26.909,35.096-69.023,54.593-122.445,54.593C752.102,2686.851,687.758,2627.974,687.758,2544.134z"/>
			<path fill="#3D3D3D" d="M1861.786,2401.531v284.958h-75.653l-103.724-129.997v129.997h-89.689v-284.958h75.646l103.731,135.999
				v-135.999H1861.786z"/>
			<path fill="#3D3D3D" d="M982.523,2544.134c0-82.671,65.119-142.724,154.032-142.724c88.907,0,154.033,60.053,154.033,142.724
				c0,82.671-65.126,142.717-154.033,142.717C1047.643,2686.851,982.523,2626.804,982.523,2544.134z M1197.779,2544.134
				c0-42.509-27.296-68.241-61.223-68.241c-33.926,0-61.223,25.732-61.223,68.241c0,42.501,27.296,68.24,61.223,68.24
				C1170.482,2612.374,1197.779,2586.635,1197.779,2544.134z"/>
			<path fill="#3D3D3D" d="M1427.813,2615.02h-24.957v71.71h-92.028v-285.2h131.408c76.041,0,124.397,41.557,124.397,107.562
				c0,41.152-18.714,72.115-51.471,89.636l57.319,88.002h-98.264L1427.813,2615.02z M1436.388,2475.685h-33.532v66.815h33.532
				c25.351,0,37.435-12.625,37.435-33.407C1473.823,2488.317,1461.739,2475.685,1436.388,2475.685z"/>
		</g>
	</g>
</g>
</svg>
