<?xml version="1.0" encoding="utf-8"?>
<!-- Generator: Adobe Illustrator 17.0.0, SVG Export Plug-In . SVG Version: 6.00 Build 0)  -->
<!DOCTYPE svg PUBLIC "-//W3C//DTD SVG 1.1//EN" "http://www.w3.org/Graphics/SVG/1.1/DTD/svg11.dtd">
<svg version="1.1" id="Layer_1" xmlns="http://www.w3.org/2000/svg" xmlns:xlink="http://www.w3.org/1999/xlink" x="0px" y="0px"
	 width="300px" height="300px" viewBox="0 0 300 300" enable-background="new 0 0 300 300" xml:space="preserve">
<g>
	<g>
		<path fill="#BEBDBD" d="M233.975,109.623c-2.117-9.197-9.639-15.982-18.695-16.994c-21.444-2.394-43.148-2.406-64.753-2.394
			c-21.608-0.012-43.316,0-64.76,2.394c-9.05,1.012-16.567,7.797-18.684,16.994c-3.013,13.097-3.047,27.393-3.047,40.878
			s0,27.779,3.013,40.874c2.113,9.195,9.632,15.98,18.688,16.994c21.442,2.396,43.148,2.408,64.756,2.396
			c21.612,0.012,43.312,0,64.753-2.396c9.05-1.012,16.574-7.797,18.691-16.994c3.015-13.097,3.026-27.392,3.026-40.874
			C236.963,137.016,236.988,122.72,233.975,109.623z M128.184,177.341c0-19.129,0-38.057,0-57.188
			c18.327,9.563,36.533,19.061,54.976,28.682C164.774,158.371,146.559,167.812,128.184,177.341z"/>
	</g>
	<g>
		<path fill="#BEBDBD" d="M150.5,300C68.065,300,1,232.934,1,150.5C1,68.065,68.065,1,150.5,1C232.934,1,300,68.065,300,150.5
			C300,232.934,232.934,300,150.5,300z M150.5,10.868c-76.993,0-139.632,62.639-139.632,139.632S73.507,290.132,150.5,290.132
			S290.132,227.493,290.132,150.5S227.493,10.868,150.5,10.868z"/>
	</g>
</g>
</svg>
